{
  "project_info": {
    "project_number": "606137491648",
    "firebase_url": "https://saisalonuser.firebaseio.com",
    "project_id": "saisalonuser",
    "storage_bucket": "saisalonuser.appspot.com"
  },
  "client": [
    {
      "client_info": {
        "mobilesdk_app_id": "1:606137491648:android:44b11768fb27e460",
        "android_client_info": {
          "package_name": "omninos.com.sai_salon"
        }
      },
      "oauth_client": [
        {
          "client_id": "606137491648-9hk2qputhoeaus395m5p6aasf1c52htj.apps.googleusercontent.com",
          "client_type": 1,
          "android_info": {
            "package_name": "omninos.com.sai_salon",
            "certificate_hash": "3801538f49074de478fa698a9d66b57fd7834c9e"
          }
        },
        {
          "client_id": "606137491648-sd7t3hn5b8trmbamk2sb8d4j1drrccud.apps.googleusercontent.com",
          "client_type": 3
        }
      ],
      "api_key": [
        {
          "current_key": "AIzaSyAxsBb5S5BxDnybMksiw-BuTXkdYoN18D4"
        }
      ],
      "services": {
        "appinvite_service": {
          "other_platform_oauth_client": [
            {
              "client_id": "606137491648-sd7t3hn5b8trmbamk2sb8d4j1drrccud.apps.googleusercontent.com",
              "client_type": 3
            }
          ]
        }
      }
    }
  ],
  "configuration_version": "1"
}